%YAML 1.1
%TAG !u! tag:unity3d.com,2011:
--- !u!1045 &1
EditorBuildSettings:
  m_ObjectHideFlags: 0
  serializedVersion: 2
  m_Scenes:
  - enabled: 0
    path: 
    guid: 00000000000000000000000000000000
  - enabled: 1
    path: Assets/Scenes/UIScenes/TitleScreen.unity
    guid: 1cf083887a41d0a46b35e765fbddad46
  - enabled: 1
    path: Assets/Scenes/UIScenes/MainMenu.unity
    guid: ec401c1d83312e54cabbf73736ed7fd8
  - enabled: 1
    path: Assets/Scenes/UIScenes/LevelSelect.unity
    guid: cdf8d3dfd2f17f14da378ce4d2c791e6
  - enabled: 1
    path: Assets/Scenes/Cinematics/CinematicIntro.unity
    guid: 0c2765eb15d822a489630421743b3b3b
  - enabled: 1
    path: Assets/Scenes/GameScenes/Scene1.unity
    guid: fda6c221debc2054c9417bb238e79640
  - enabled: 1
    path: Assets/Scenes/UIScenes/scoreScreen.unity
    guid: e201d0d8c490a9b4e92dfea4d3638d97
  - enabled: 0
    path: Assets/Scenes/Cinematics/Cinematic1.unity
    guid: d52e0a0d6dd2d254c85302b27ee03b85
  - enabled: 1
    path: Assets/Scenes/GameScenes/Scene2.unity
    guid: 47a0b56d21ed6e344aed9e7756574402
  - enabled: 1
    path: Assets/Scenes/UIScenes/scoreScreen2.unity
    guid: 2d7279f11518b5545a321fcd3b4b9e01
  - enabled: 1
    path: Assets/Scenes/Cinematics/CinematicOutro.unity
    guid: 574dc3ce9e25cd54cb731e39e59a751a
  m_configObjects: {}
